{
    "results": [{
            "img": "../../../assets/images/siigle.png",
            "title": "Title 1",
            "content": "111111111111111111111111111 1111111111 1111111"
        },
        {
            "img": "../../../assets/images/siigle_wiki.png",
            "title": "Title 2",
            "content": "2222222222222 22222222 222222222222222222"
        },
        {
            "img": "../../../assets/images/siigle.png",
            "title": "Title 2",
            "content": "3 3 3 3 333333333333 333 3 3 3 3 3"
        }
    ]
}